^C:\SIDE PROJECTS\REALSENSEPHYSICS\REALSENSEPHYSICS\CAMERA.CPP|C:\SIDE PROJECTS\REALSENSEPHYSICS\REALSENSEPHYSICS\CONSTANTS.CPP|C:\SIDE PROJECTS\REALSENSEPHYSICS\REALSENSEPHYSICS\ENVIRONMENTMAP.CPP|C:\SIDE PROJECTS\REALSENSEPHYSICS\REALSENSEPHYSICS\FLUIDRENDERER.CPP|C:\SIDE PROJECTS\REALSENSEPHYSICS\REALSENSEPHYSICS\MAIN.CPP|C:\SIDE PROJECTS\REALSENSEPHYSICS\REALSENSEPHYSICS\REALSENSE.CPP|C:\SIDE PROJECTS\REALSENSEPHYSICS\REALSENSEPHYSICS\SCENE.CPP|C:\SIDE PROJECTS\REALSENSEPHYSICS\REALSENSEPHYSICS\SHADER.CPP|C:\SIDE PROJECTS\REALSENSEPHYSICS\REALSENSEPHYSICS\SHADERMANAGER.CPP
C:\SIDE PROJECTS\REALSENSEPHYSICS\REALSENSEPHYSICS\RELEASE\SHADERMANAGER.OBJ
C:\SIDE PROJECTS\REALSENSEPHYSICS\REALSENSEPHYSICS\RELEASE\SHADER.OBJ
C:\SIDE PROJECTS\REALSENSEPHYSICS\REALSENSEPHYSICS\RELEASE\SCENE.OBJ
C:\SIDE PROJECTS\REALSENSEPHYSICS\REALSENSEPHYSICS\RELEASE\REALSENSE.OBJ
C:\SIDE PROJECTS\REALSENSEPHYSICS\REALSENSEPHYSICS\RELEASE\MAIN.OBJ
C:\SIDE PROJECTS\REALSENSEPHYSICS\REALSENSEPHYSICS\RELEASE\FLUIDRENDERER.OBJ
C:\SIDE PROJECTS\REALSENSEPHYSICS\REALSENSEPHYSICS\RELEASE\ENVIRONMENTMAP.OBJ
C:\SIDE PROJECTS\REALSENSEPHYSICS\REALSENSEPHYSICS\RELEASE\CONSTANTS.OBJ
C:\SIDE PROJECTS\REALSENSEPHYSICS\REALSENSEPHYSICS\RELEASE\CAMERA.OBJ
^C:\SIDE PROJECTS\REALSENSEPHYSICS\REALSENSEPHYSICS\CAMERA.CPP
C:\SIDE PROJECTS\REALSENSEPHYSICS\REALSENSEPHYSICS\RELEASE\VC110.PDB
^C:\SIDE PROJECTS\REALSENSEPHYSICS\REALSENSEPHYSICS\SHADER.CPP
C:\SIDE PROJECTS\REALSENSEPHYSICS\REALSENSEPHYSICS\RELEASE\VC110.PDB
^C:\SIDE PROJECTS\REALSENSEPHYSICS\REALSENSEPHYSICS\FLUIDRENDERER.CPP|C:\SIDE PROJECTS\REALSENSEPHYSICS\REALSENSEPHYSICS\MAIN.CPP|C:\SIDE PROJECTS\REALSENSEPHYSICS\REALSENSEPHYSICS\REALSENSE.CPP|C:\SIDE PROJECTS\REALSENSEPHYSICS\REALSENSEPHYSICS\SCENE.CPP
C:\SIDE PROJECTS\REALSENSEPHYSICS\REALSENSEPHYSICS\RELEASE\MAIN.OBJ
C:\SIDE PROJECTS\REALSENSEPHYSICS\REALSENSEPHYSICS\RELEASE\SCENE.OBJ
C:\SIDE PROJECTS\REALSENSEPHYSICS\REALSENSEPHYSICS\RELEASE\REALSENSE.OBJ
C:\SIDE PROJECTS\REALSENSEPHYSICS\REALSENSEPHYSICS\RELEASE\FLUIDRENDERER.OBJ
^C:\SIDE PROJECTS\REALSENSEPHYSICS\REALSENSEPHYSICS\CONSTANTS.CPP|C:\SIDE PROJECTS\REALSENSEPHYSICS\REALSENSEPHYSICS\MAIN.CPP|C:\SIDE PROJECTS\REALSENSEPHYSICS\REALSENSEPHYSICS\REALSENSE.CPP|C:\SIDE PROJECTS\REALSENSEPHYSICS\REALSENSEPHYSICS\SCENE.CPP
C:\SIDE PROJECTS\REALSENSEPHYSICS\REALSENSEPHYSICS\RELEASE\MAIN.OBJ
C:\SIDE PROJECTS\REALSENSEPHYSICS\REALSENSEPHYSICS\RELEASE\SCENE.OBJ
C:\SIDE PROJECTS\REALSENSEPHYSICS\REALSENSEPHYSICS\RELEASE\REALSENSE.OBJ
C:\SIDE PROJECTS\REALSENSEPHYSICS\REALSENSEPHYSICS\RELEASE\CONSTANTS.OBJ
^C:\SIDE PROJECTS\REALSENSEPHYSICS\REALSENSEPHYSICS\CONSTANTS.CPP
C:\SIDE PROJECTS\REALSENSEPHYSICS\REALSENSEPHYSICS\RELEASE\CONSTANTS.OBJ
C:\SIDE PROJECTS\REALSENSEPHYSICS\REALSENSEPHYSICS\RELEASE\VC110.PDB
^C:\SIDE PROJECTS\REALSENSEPHYSICS\REALSENSEPHYSICS\REALSENSE.CPP|C:\SIDE PROJECTS\REALSENSEPHYSICS\REALSENSEPHYSICS\SCENE.CPP
C:\SIDE PROJECTS\REALSENSEPHYSICS\REALSENSEPHYSICS\RELEASE\SCENE.OBJ
C:\SIDE PROJECTS\REALSENSEPHYSICS\REALSENSEPHYSICS\RELEASE\REALSENSE.OBJ
^C:\SIDE PROJECTS\REALSENSEPHYSICS\REALSENSEPHYSICS\ENVIRONMENTMAP.CPP|C:\SIDE PROJECTS\REALSENSEPHYSICS\REALSENSEPHYSICS\FLUIDRENDERER.CPP|C:\SIDE PROJECTS\REALSENSEPHYSICS\REALSENSEPHYSICS\MAIN.CPP|C:\SIDE PROJECTS\REALSENSEPHYSICS\REALSENSEPHYSICS\REALSENSE.CPP|C:\SIDE PROJECTS\REALSENSEPHYSICS\REALSENSEPHYSICS\SCENE.CPP|C:\SIDE PROJECTS\REALSENSEPHYSICS\REALSENSEPHYSICS\SHADERMANAGER.CPP
C:\SIDE PROJECTS\REALSENSEPHYSICS\REALSENSEPHYSICS\RELEASE\MAIN.OBJ
C:\SIDE PROJECTS\REALSENSEPHYSICS\REALSENSEPHYSICS\RELEASE\SHADERMANAGER.OBJ
C:\SIDE PROJECTS\REALSENSEPHYSICS\REALSENSEPHYSICS\RELEASE\SCENE.OBJ
C:\SIDE PROJECTS\REALSENSEPHYSICS\REALSENSEPHYSICS\RELEASE\REALSENSE.OBJ
C:\SIDE PROJECTS\REALSENSEPHYSICS\REALSENSEPHYSICS\RELEASE\FLUIDRENDERER.OBJ
C:\SIDE PROJECTS\REALSENSEPHYSICS\REALSENSEPHYSICS\RELEASE\ENVIRONMENTMAP.OBJ
^C:\SIDE PROJECTS\REALSENSEPHYSICS\REALSENSEPHYSICS\ENVIRONMENTMAP.CPP
C:\SIDE PROJECTS\REALSENSEPHYSICS\REALSENSEPHYSICS\RELEASE\VC110.PDB
^C:\SIDE PROJECTS\REALSENSEPHYSICS\REALSENSEPHYSICS\FLUIDRENDERER.CPP
C:\SIDE PROJECTS\REALSENSEPHYSICS\REALSENSEPHYSICS\RELEASE\VC110.PDB
^C:\SIDE PROJECTS\REALSENSEPHYSICS\REALSENSEPHYSICS\SHADERMANAGER.CPP
C:\SIDE PROJECTS\REALSENSEPHYSICS\REALSENSEPHYSICS\RELEASE\VC110.PDB
^C:\SIDE PROJECTS\REALSENSEPHYSICS\REALSENSEPHYSICS\MAIN.CPP|C:\SIDE PROJECTS\REALSENSEPHYSICS\REALSENSEPHYSICS\REALSENSE.CPP|C:\SIDE PROJECTS\REALSENSEPHYSICS\REALSENSEPHYSICS\SCENE.CPP
C:\SIDE PROJECTS\REALSENSEPHYSICS\REALSENSEPHYSICS\RELEASE\MAIN.OBJ
C:\SIDE PROJECTS\REALSENSEPHYSICS\REALSENSEPHYSICS\RELEASE\SCENE.OBJ
C:\SIDE PROJECTS\REALSENSEPHYSICS\REALSENSEPHYSICS\RELEASE\REALSENSE.OBJ
^C:\SIDE PROJECTS\REALSENSEPHYSICS\REALSENSEPHYSICS\MAIN.CPP
C:\SIDE PROJECTS\REALSENSEPHYSICS\REALSENSEPHYSICS\RELEASE\VC110.PDB
^C:\SIDE PROJECTS\REALSENSEPHYSICS\REALSENSEPHYSICS\REALSENSE.CPP
C:\SIDE PROJECTS\REALSENSEPHYSICS\REALSENSEPHYSICS\RELEASE\REALSENSE.OBJ
C:\SIDE PROJECTS\REALSENSEPHYSICS\REALSENSEPHYSICS\RELEASE\VC110.PDB
^C:\SIDE PROJECTS\REALSENSEPHYSICS\REALSENSEPHYSICS\SCENE.CPP
C:\SIDE PROJECTS\REALSENSEPHYSICS\REALSENSEPHYSICS\RELEASE\SCENE.OBJ
C:\SIDE PROJECTS\REALSENSEPHYSICS\REALSENSEPHYSICS\RELEASE\VC110.PDB
^H:\VOLUMERENDERER\REALSENSEPHYSICS\REALSENSEPHYSICS\CAMERA.CPP|H:\VOLUMERENDERER\REALSENSEPHYSICS\REALSENSEPHYSICS\CONSTANTS.CPP|H:\VOLUMERENDERER\REALSENSEPHYSICS\REALSENSEPHYSICS\ENVIRONMENTMAP.CPP|H:\VOLUMERENDERER\REALSENSEPHYSICS\REALSENSEPHYSICS\FLUIDRENDERER.CPP|H:\VOLUMERENDERER\REALSENSEPHYSICS\REALSENSEPHYSICS\MAIN.CPP|H:\VOLUMERENDERER\REALSENSEPHYSICS\REALSENSEPHYSICS\REALSENSE.CPP|H:\VOLUMERENDERER\REALSENSEPHYSICS\REALSENSEPHYSICS\SCENE.CPP|H:\VOLUMERENDERER\REALSENSEPHYSICS\REALSENSEPHYSICS\SHADER.CPP|H:\VOLUMERENDERER\REALSENSEPHYSICS\REALSENSEPHYSICS\SHADERMANAGER.CPP
H:\VOLUMERENDERER\REALSENSEPHYSICS\REALSENSEPHYSICS\RELEASE\CONSTANTS.OBJ
H:\VOLUMERENDERER\REALSENSEPHYSICS\REALSENSEPHYSICS\RELEASE\CAMERA.OBJ
^H:\VOLUMERENDERER\REALSENSEPHYSICS\REALSENSEPHYSICS\CAMERA.CPP
H:\VOLUMERENDERER\REALSENSEPHYSICS\REALSENSEPHYSICS\RELEASE\CAMERA.OBJ
^H:\VOLUMERENDERER\REALSENSEPHYSICS\REALSENSEPHYSICS\CONSTANTS.CPP
H:\VOLUMERENDERER\REALSENSEPHYSICS\REALSENSEPHYSICS\RELEASE\CONSTANTS.OBJ
^H:\VOLUMERENDERER\REALSENSEPHYSICS\REALSENSEPHYSICS\ENVIRONMENTMAP.CPP
H:\VOLUMERENDERER\REALSENSEPHYSICS\REALSENSEPHYSICS\RELEASE\ENVIRONMENTMAP.OBJ
^H:\VOLUMERENDERER\REALSENSEPHYSICS\REALSENSEPHYSICS\FLUIDRENDERER.CPP
H:\VOLUMERENDERER\REALSENSEPHYSICS\REALSENSEPHYSICS\RELEASE\FLUIDRENDERER.OBJ
^H:\VOLUMERENDERER\REALSENSEPHYSICS\REALSENSEPHYSICS\MAIN.CPP
H:\VOLUMERENDERER\REALSENSEPHYSICS\REALSENSEPHYSICS\RELEASE\MAIN.OBJ
^H:\VOLUMERENDERER\REALSENSEPHYSICS\REALSENSEPHYSICS\REALSENSE.CPP
H:\VOLUMERENDERER\REALSENSEPHYSICS\REALSENSEPHYSICS\RELEASE\REALSENSE.OBJ
^H:\VOLUMERENDERER\REALSENSEPHYSICS\REALSENSEPHYSICS\SCENE.CPP
H:\VOLUMERENDERER\REALSENSEPHYSICS\REALSENSEPHYSICS\RELEASE\SCENE.OBJ
^H:\VOLUMERENDERER\REALSENSEPHYSICS\REALSENSEPHYSICS\SHADER.CPP
H:\VOLUMERENDERER\REALSENSEPHYSICS\REALSENSEPHYSICS\RELEASE\SHADER.OBJ
^H:\VOLUMERENDERER\REALSENSEPHYSICS\REALSENSEPHYSICS\SHADERMANAGER.CPP
H:\VOLUMERENDERER\REALSENSEPHYSICS\REALSENSEPHYSICS\RELEASE\SHADERMANAGER.OBJ
